{  
    "title": "UZIVATELE",
    "filtrations": [
        {"type":"text", "label":"Nazev", "key":"name"},
        {"type":"text", "label":"Predmet", "key": "subject"}
    ],
    "topActions": {
        "add":{ "name": "Přidat", "fnc":"renderWindowEdit","ico": "fa-plus","class":"btn btn-success slide-right"}
    },
    "possibilityActions": {
          "edit":{"name":"Editovat", "fnc": "renderWindowEdit", "ico":"fa-pencil-square-o", "class":"btn btn-xs btn-primary"},
          "trash":{"name":"Smazat", "fnc": "renderWindowTrash", "ico":"fa-trash-o", "class":"btn btn-xs btn-danger"}
    },
    "fields":[  
        {"key":"id", "title": "Id"}, 
        {"key": "name", "title":"Nazev"}, 
        {"key":"subject", "title":"Predmet"}
    ],
    "deleteUrl": "EmailTemplates.delete",
    "editWindow": {
            "title": "Editace uživatele", 
            "contentUrl": "email_templates/edit.html", 
            "dataUrlKey": "EmailTemplates.edit",
            "validate": true
    }
}